{
    "type": "service_account",
    "project_id": "symmetrics-rest-api",
    "private_key_id": "306fd2a1050afd7ab8f7a839daf3741c42a69c78",
    "private_key": "-----BEGIN PRIVATE KEY-----\nMIIEvQIBADANBgkqhkiG9w0BAQEFAASCBKcwggSjAgEAAoIBAQCzYT/o9phpD2Nn\nwlrHiVYvnHXfkHffkioWjPE+HKKOqhOHur8wo3A+dY2EFW89aGDvqgsp1V656HSP\n+MOjxaLKbTi2hXXnxD4QVxbdL6PJXe7OB4Y3dCDShx08n3fEsgobnEc/u0DBKtcT\nAIr4vQ4eqD8Et6aRoOIJlqqCBf+QrJ6kIH8tLO69Aal/lMOIklhnuZ46O12vMaxQ\nltpO5WCJYJv/XXusRKwaCbNsPawFqoZCq2bywfKU78p4RT8YapjwYYJvMyOhDq+o\nAjJ5PCLJOZbaEzlxvsGlv3J9d5/9Tw4lIM8c5NynlPqMyF9eRiS7rucBQGtYvtnX\nwedjGgSFAgMBAAECggEAFEHSPtPCSHMFbc1EBS6cPgo0QYgGEYhnGl7WS4ZeUTAh\nvn03ZB3A6jzKO3VUN6IW+FnCovnGlcYLi8qzBUanaKbG9c3Cj+bYf23mVhowK+hg\ntIGjBZYmsr+xbIwxsVPN0mpmnWrfGDFnUm0IRKjM9GdZnoXC2MVLYXvTS5Wz07mJ\nsNk6hFWH7/BFdV69K6b0c7758hGQ8KdqIZy8EOxk2aeoDrF2KxX9agbx67ZVtwEQ\nnMzuH7tjnakMbFN9beSStGPFXrVaFKCPeY1pmroBeChP4LjHOEV0PWcIklziSj5q\nb9iz7bwFVrJ454sJt2H+xYrUwW7wsEJxPRKwLY/2IQKBgQD8S845/KABYyPpiuRa\n/YNmpKtIjW+7zWAC+AmD38UCAQSncYB10nFEe6Up6v/7u5JDDoKjZ1y6VjAuQ9v1\nj7J/0ipz6WZ/NMn6mlfSIfkhEvKjKYcFjvJlPWVkiYv7QZigHVMi7K+pWeoqktZ4\nNXEXc6wXZyBE447+ZCziwyzYzQKBgQC2A2fpMhIfoOgc8ig+Zi5iDRkjLBGSp6k7\nusHs6X1a1HCC+7zTDc8ZKw64qarxg6j3JSm8J2mrdmF0GiA95grrmVa2/lrZRux2\n/sLcTmuS6jRFqqUKTqBYS9/z9kqa1gu0eyfs7O6iany3w0t7XN2OP56PHgcIomQ1\nilhE/OY6mQKBgQDjVrN3kOnlFh6QHPV0AChdX1hwQfJCuecgBb0dNY/iJGS7NQ1a\nHcyutvO29+i+PuCmx/Zzo3ns9ijoJ4GWnmtrvkc+tzwCt+Cgjl9AHBjO8rHs0Ei4\ne3x0OYSZuU+Hki4jaQk22SvYYAsfXb0gCJflV/fkBqsPKDX7iOzhUJmiqQKBgAsJ\nbdWgKaUtVqXasUIHZCyh6rJNS8t+yy5KBtRc3DMTyrbGmQ6bOcGm8L+V2j3G5AoI\ngN1d7nRtOz+VDfty5Zqfs7ho+A1Q1anpjNtbDf7coMrQrC1R0ztHbo8WkjONYyxQ\ng31EaLwEhQeHmh4i5XRouy6mfXqyji0I9I1KYJORAoGAdPYYwsCw3q0fpoxT2rtw\nFSg1GgKEG7igjkIo6hBpi6yzR25rp/Vuep3tJVMlWsbPqNjSbnpYQv0XEdz80GOx\n9BkVnX4n5OlhmsKndv35hPPwhEU/mLwetlRIRJHWdTqaaE17UwB4l5UJeX1g6r9C\ndiXPjEUW+Qe9BMqQq4k86pE=\n-----END PRIVATE KEY-----\n",
    "client_email": "firebase-adminsdk-tr4gm@symmetrics-rest-api.iam.gserviceaccount.com",
    "client_id": "107657309378271760473",
    "auth_uri": "https://accounts.google.com/o/oauth2/auth",
    "token_uri": "https://oauth2.googleapis.com/token",
    "auth_provider_x509_cert_url": "https://www.googleapis.com/oauth2/v1/certs",
    "client_x509_cert_url": "https://www.googleapis.com/robot/v1/metadata/x509/firebase-adminsdk-tr4gm%40symmetrics-rest-api.iam.gserviceaccount.com"
}
